…
Arrival Times and Censoring Type II (“Administrative”) Censoring

We’ll use the tools from the previous section to the time of censoring with arrivals. We find the calendar time when800 events occur

We can get the time of the 400th event with nth(relative_time, n = 400, order_by = relative_time) = 13.5

censor_time = with(with_arrivals, nth(relative_time, n = 400, order_by = relative_time))

with_arrivals %>% 
  mutate(
    event = relative_time <= censor_time,
    obs_time = ifelse(!event, censor_time - arrival_time, surv_time),
  )

## # A tibble: 1,000 x 7
##    patient_id arm   surv_time event obs_time arrival_time relative_time
##         <int> <chr>     <dbl> <lgl>    <dbl>        <dbl>         <dbl>
##  1          1 ctrl     11.6   FALSE    8.98         4.53          16.1 
##  2          2 ctrl    101.    FALSE    8.42         5.09         106.  
##  3          3 ctrl      0.306 TRUE     0.306        0.729          1.04
##  4          4 ctrl     60.6   FALSE   11.9          1.57          62.2 
##  5          5 ctrl     35.5   FALSE   11.2          2.28          37.8 
##  6          6 ctrl     12.3   TRUE    12.3          0.676         13.0 
##  7          7 ctrl      1.23  TRUE     1.23         3.53           4.77
##  8          8 ctrl     18.5   FALSE   10.7          2.80          21.3 
##  9          9 ctrl      6.75  TRUE     6.75         2.21           8.96
## 10         10 ctrl      2.13  TRUE     2.13         1.85           3.98
## # ... with 990 more rows
