…
```r
censor_time = with(with_arrivals, nth(relative_time, n = 400, order_by = relative_time))

  
with_arrivals %>% 
  mutate(
    event = relative_time <= censor_time,
    obs_time = ifelse(!event, censor_time - arrival_time, surv_time),
  )
```

```
## # A tibble: 1,000 x 7
##    patient_id arm   surv_time event obs_time arrival_time relative_time
##         <int> <chr>     <dbl> <lgl>    <dbl>        <dbl>         <dbl>
##  1          1 ctrl     12.2   FALSE   10.0          3.67          15.8 
##  2          2 ctrl      8.32  TRUE     8.32         3.35          11.7 
##  3          3 ctrl     19.2   FALSE   13.5          0.240         19.4 
##  4          4 ctrl      0.456 TRUE     0.456        4.47           4.93
##  5          5 ctrl      0.811 TRUE     0.811        1.24           2.05
##  6          6 ctrl      4.57  TRUE     4.57         3.94           8.51
##  7          7 ctrl      4.53  TRUE     4.53         3.13           7.67
##  8          8 ctrl      2.10  TRUE     2.10         3.80           5.90
##  9          9 ctrl     39.3   FALSE    9.99         3.71          43.0 
## 10         10 ctrl      0.421 TRUE     0.421        1.71           2.13
## # ... with 990 more rows
```
